<svg width="24" height="27" viewBox="0 0 24 27" fill="none" xmlns="http://www.w3.org/2000/svg">
<path d="M20.75 6.5H18.25C18.25 3 15.5 0.25 12 0.25C8.5 0.25 5.75 3 5.75 6.5H3.25C1.875 6.5 0.75 7.625 0.75 9V24C0.75 25.375 1.875 26.5 3.25 26.5H20.75C22.125 26.5 23.25 25.375 23.25 24V9C23.25 7.625 22.125 6.5 20.75 6.5ZM12 2.75C14.125 2.75 15.75 4.375 15.75 6.5H8.25C8.25 4.375 9.875 2.75 12 2.75ZM20.75 24H3.25V9H20.75V24ZM12 14C9.875 14 8.25 12.375 8.25 10.25H5.75C5.75 13.75 8.5 16.5 12 16.5C15.5 16.5 18.25 13.75 18.25 10.25H15.75C15.75 12.375 14.125 14 12 14Z" fill="#30A8B4"/>
</svg>
