<svg width="21" height="22" viewBox="0 0 21 22" fill="none" xmlns="http://www.w3.org/2000/svg">
<path d="M4.4475 9.63875C6.0675 12.8225 8.6775 15.4325 11.8612 17.0525L14.3363 14.5775C14.6512 14.2625 15.09 14.1725 15.4838 14.2963C16.7437 14.7125 18.0938 14.9375 19.5 14.9375C19.7984 14.9375 20.0845 15.056 20.2955 15.267C20.5065 15.478 20.625 15.7641 20.625 16.0625V20C20.625 20.2984 20.5065 20.5845 20.2955 20.7955C20.0845 21.0065 19.7984 21.125 19.5 21.125C14.4277 21.125 9.56322 19.1101 5.97658 15.5234C2.38995 11.9368 0.375 7.07227 0.375 2C0.375 1.70163 0.493526 1.41548 0.704505 1.2045C0.915483 0.993526 1.20163 0.875 1.5 0.875H5.4375C5.73587 0.875 6.02202 0.993526 6.233 1.2045C6.44397 1.41548 6.5625 1.70163 6.5625 2C6.5625 3.40625 6.7875 4.75625 7.20375 6.01625C7.3275 6.41 7.2375 6.84875 6.9225 7.16375L4.4475 9.63875Z" fill="#30A8B4"/>
</svg>
